simulation/qsim/MIC1.msim.vcd
$comment
	File created using the following command:
		vcd file MIC1.msim.vcd -direction
$end
$date
	Sat Apr 12 17:13:27 2025
$end
$version
	ModelSim Version 10.1d
$end
$timescale
	1ps
$end
$scope module MIC1_vlg_vec_tst $end
$var reg 1 ! A $end
$var reg 1 " B $end
$var reg 1 # CIN $end
$var reg 1 $ EN $end
$var wire 1 % COUT $end
$var wire 1 & O $end
$var wire 1 ' sampler $end
$scope module i1 $end
$var wire 1 ( gnd $end
$var wire 1 ) vcc $end
$var wire 1 * unknown $end
$var tri1 1 + devclrn $end
$var tri1 1 , devpor $end
$var tri1 1 - devoe $end
$var wire 1 . A~combout $end
$var wire 1 / B~combout $end
$var wire 1 0 CIN~combout $end
$var wire 1 1 EN~combout $end
$var wire 1 2 inst~combout $end
$var wire 1 3 inst6~combout $end
$upscope $end
$upscope $end
$enddefinitions $end
#0
$dumpvars
0!
0"
0#
1$
0%
0&
x'
0(
1)
x*
1+
1,
1-
0.
0/
00
11
02
03
$end
#125000
1#
10
0'
12
1&
#250000
1"
0#
1/
00
1'
02
0&
#375000
1#
10
0'
13
1%
#500000
1!
0"
0#
1.
0/
00
1'
03
0%
#625000
1#
10
0'
13
1%
#750000
1"
0#
1/
00
1'
03
0%
#875000
1#
10
0'
13
12
1%
1&
